<?xml version="1.0" encoding="UTF-8" standalone="no"?>
<!-- Created with Inkscape (http://www.inkscape.org/) -->

<svg
   width="95.940361mm"
   height="11.81756mm"
   viewBox="0 0 95.940361 11.81756"
   version="1.1"
   id="svg1387"
   inkscape:version="1.1.1 (3bf5ae0d25, 2021-09-20)"
   sodipodi:docname="logo_for_website.svg"
   xmlns:inkscape="http://www.inkscape.org/namespaces/inkscape"
   xmlns:sodipodi="http://sodipodi.sourceforge.net/DTD/sodipodi-0.dtd"
   xmlns="http://www.w3.org/2000/svg"
   xmlns:svg="http://www.w3.org/2000/svg">
  <sodipodi:namedview
     id="namedview1389"
     pagecolor="#ffffff"
     bordercolor="#999999"
     borderopacity="1"
     inkscape:pageshadow="0"
     inkscape:pageopacity="0"
     inkscape:pagecheckerboard="0"
     inkscape:document-units="mm"
     showgrid="false"
     inkscape:zoom="0.88728956"
     inkscape:cx="210.7542"
     inkscape:cy="180.32445"
     inkscape:window-width="1920"
     inkscape:window-height="1009"
     inkscape:window-x="-8"
     inkscape:window-y="-7"
     inkscape:window-maximized="1"
     inkscape:current-layer="layer1" />
  <defs
     id="defs1384" />
  <g
     inkscape:label="Layer 1"
     inkscape:groupmode="layer"
     id="layer1"
     transform="translate(-36.120178,-83.549055)">
    <rect
       style="fill:#000000;fill-opacity:1;stroke:none;stroke-width:0.4;stroke-linecap:square;stroke-linejoin:round;stroke-miterlimit:4;stroke-dasharray:none;stroke-opacity:1"
       id="rect90697"
       width="1.3238462"
       height="1.3318529"
       x="127.34887"
       y="84.522285" />
    <rect
       style="fill:#4d8dff;fill-opacity:1;stroke:none;stroke-width:0.4;stroke-linecap:square;stroke-linejoin:round;stroke-miterlimit:4;stroke-dasharray:none;stroke-opacity:1"
       id="rect90697-8"
       width="1.3238462"
       height="1.3318529"
       x="130.73669"
       y="84.522285" />
    <g
       aria-label="zattO records™"
       id="text6533"
       style="font-size:10.5833px;line-height:80%;font-family:'Imagine Font';-inkscape-font-specification:'Imagine Font';text-align:end;text-orientation:upright;text-anchor:end;stroke-width:0.220209;stroke-linecap:square;paint-order:fill markers stroke"
       transform="matrix(1.0813598,0,0,1.0813598,28.914704,74.79004)">
      <path
         d="M 6.7370092,14.426008 H 12.163017 V 13.340807 H 8.4733318 L 12.163017,10.085202 V 9.0000001 H 6.7370092 v 1.0852019 h 3.7516968 l -3.7516968,3.255605 z"
         style="text-align:start;text-anchor:start;stroke-width:0.220209"
         id="path976" />
      <path
         d="m 13.237884,14.426008 h 1.085201 v -2.170403 h 3.255605 v 2.170403 h 1.085202 V 9.0000001 h -5.426008 z m 1.085201,-3.255605 v -1.085201 h 3.255605 v 1.085201 z"
         style="text-align:start;text-anchor:start;stroke-width:0.220209"
         id="path978" />
      <path
         d="m 19.738758,10.085202 h 2.170403 v 4.340806 h 1.085202 v -4.340806 h 2.170403 V 9.0000001 h -5.426008 z"
         style="text-align:start;text-anchor:start;stroke-width:0.220209"
         id="path980" />
      <path
         d="m 26.239634,10.085202 h 2.170403 v 4.340806 h 1.085202 v -4.340806 h 2.170403 V 9.0000001 h -5.426008 z"
         style="text-align:start;text-anchor:start;stroke-width:0.220209"
         id="path982" />
      <path
         d="m 32.740507,14.426008 h 5.426008 V 9.3108339 h -5.426008 z m 1.085202,-1.085201 v -2.944771 h 3.255605 v 2.944771 z"
         style="text-align:start;text-anchor:start;stroke-width:0.220209"
         id="path984"
         sodipodi:nodetypes="cccccccccc" />
      <path
         d="m 41.401449,14.426008 h 1.085202 v -2.170403 h 0.713132 l 2.170404,2.170403 0.723467,-0.733803 -1.4366,-1.4366 h 2.170403 V 9.0000001 h -5.426008 z m 1.085202,-3.255605 v -1.085201 h 3.255605 v 1.085201 z"
         style="text-align:start;text-anchor:start;stroke-width:0.220209"
         id="path986" />
      <path
         d="m 47.902323,14.426008 h 5.426008 v -1.085201 h -4.340806 v -1.085202 h 2.170403 v -1.085202 h -2.170403 v -1.085201 h 4.340806 V 9.0000001 h -5.426008 z"
         style="text-align:start;text-anchor:start;stroke-width:0.220209"
         id="path988" />
      <path
         d="m 54.4032,14.426008 h 5.426008 v -1.085201 h -4.340806 v -3.255605 h 4.340806 V 9.0000001 H 54.4032 Z"
         style="text-align:start;text-anchor:start;stroke-width:0.220209"
         id="path990" />
      <path
         d="m 60.904074,14.426008 h 5.426008 V 9.0000001 h -5.426008 z m 1.085201,-1.085201 v -3.255605 h 3.255605 v 3.255605 z"
         style="text-align:start;text-anchor:start;stroke-width:0.220209"
         id="path992" />
      <path
         d="m 67.404947,14.426008 h 1.085202 v -2.170403 h 0.713133 l 2.170403,2.170403 0.723468,-0.733803 -1.436601,-1.4366 h 2.170404 V 9.0000001 h -5.426009 z m 1.085202,-3.255605 v -1.085201 h 3.255605 v 1.085201 z"
         style="text-align:start;text-anchor:start;stroke-width:0.220209"
         id="path994" />
      <path
         d="m 73.905825,14.426008 h 4.340806 l 1.085202,-1.085201 V 10.085202 L 78.246631,9.0000001 h -4.340806 z m 1.085201,-1.074866 v -3.26594 h 2.893871 l 0.37207,0.372069 v 2.532137 l -0.37207,0.361734 z"
         style="text-align:start;text-anchor:start;stroke-width:0.220209"
         id="path996" />
      <path
         d="m 80.406695,14.426008 h 5.426008 v -3.255605 h -4.340807 v -1.085201 h 4.340807 V 9.0000001 h -5.426008 v 3.2556049 h 4.340806 v 1.085202 h -4.340806 z"
         style="text-align:start;text-anchor:start;stroke-width:0.220209"
         id="path998" />
      <path
         d="m 87.804679,14.426008 h 0.217041 v -0.868165 h 0.217041 v 0.868165 h 0.217042 v -0.868165 h 0.217041 v 0.868165 h 0.217041 V 13.340801 H 87.804679 Z M 86.50243,13.557843 h 0.434083 v 0.868165 h 0.217042 v -0.868165 h 0.434082 V 13.340801 H 86.50243 Z"
         style="font-size:2.11667px;stroke-width:0.220209"
         id="path1000" />
      <rect
         style="fill:#000000;fill-opacity:1;stroke:none;stroke-width:0.231191;stroke-linecap:square;paint-order:fill markers stroke"
         id="rect1393"
         width="5.4260097"
         height="0.54000002"
         x="32.740505"
         y="8.1000004" />
    </g>
    <text
       xml:space="preserve"
       style="font-size:2.77511px;line-height:80%;font-family:'Imagine Font';-inkscape-font-specification:'Imagine Font';text-align:start;text-orientation:upright;text-anchor:start;fill:#000000;stroke-width:0.550001;stroke-linecap:square;stroke-miterlimit:4;stroke-dasharray:none;paint-order:fill markers stroke"
       x="35.987385"
       y="95.366615"
       id="text19851"><tspan
         sodipodi:role="line"
         id="tspan19849"
         style="font-size:2.77511px;stroke-width:0.550001"
         x="35.987385"
         y="95.366615">alphendp / garbage_collecting</tspan></text>
  </g>
</svg>
